<svg xmlns="http://www.w3.org/2000/svg" width="120" height="30" fill="#fff"><rect id="backgroundrect" width="100%" height="100%" x="0" y="0" fill="none" stroke="none"/>
    
    
    
<g class="currentLayer" style=""><title>Layer 1</title><circle cx="15" cy="15" r="13.5949" id="svg_1" class="selected" fill="#212121" fill-opacity="1">
        <animate attributeName="r" from="15" to="15" begin="0s" dur="0.8s" values="15;9;15" calcMode="linear" repeatCount="indefinite"/>
        <animate attributeName="fill-opacity" from="1" to="1" begin="0s" dur="0.8s" values="1;.5;1" calcMode="linear" repeatCount="indefinite"/>
    </circle><circle cx="60" cy="15" r="10.4051" fill-opacity="1" id="svg_2" class="selected" fill="#212121">
        <animate attributeName="r" from="9" to="9" begin="0s" dur="0.8s" values="9;15;9" calcMode="linear" repeatCount="indefinite"/>
        <animate attributeName="fill-opacity" from="0.5" to="0.5" begin="0s" dur="0.8s" values=".5;1;.5" calcMode="linear" repeatCount="indefinite"/>
    </circle><circle cx="105" cy="15" r="13.5949" id="svg_3" class="selected" fill="#212121" fill-opacity="1">
        <animate attributeName="r" from="15" to="15" begin="0s" dur="0.8s" values="15;9;15" calcMode="linear" repeatCount="indefinite"/>
        <animate attributeName="fill-opacity" from="1" to="1" begin="0s" dur="0.8s" values="1;.5;1" calcMode="linear" repeatCount="indefinite"/>
    </circle></g></svg>